<svg width="40" height="8" viewBox="0 0 40 8" fill="none" xmlns="http://www.w3.org/2000/svg">
<circle cx="4" cy="4" r="4" fill="#CB3631"/>
<circle cx="20" cy="4" r="4" fill="#E2E2E2"/>
<circle cx="36" cy="4" r="4" fill="#E2E2E2"/>
</svg>
