<svg width="135" height="44" viewBox="0 0 135 44" fill="none" xmlns="http://www.w3.org/2000/svg">
<path d="M131 0H4C1.79086 0 0 1.79086 0 4V40C0 42.2091 1.79086 44 4 44H131C133.209 44 135 42.2091 135 40V4C135 1.79086 133.209 0 131 0Z" fill="#202D3D"/>
<path d="M68.0996 23.8C65.6996 23.8 63.7996 25.6 63.7996 28.1C63.7996 30.5 65.6996 32.4 68.0996 32.4C70.4996 32.4 72.3996 30.6 72.3996 28.1C72.3996 25.5 70.4996 23.8 68.0996 23.8ZM68.0996 30.6C66.7996 30.6 65.6996 29.5 65.6996 28C65.6996 26.5 66.7996 25.4 68.0996 25.4C69.3996 25.4 70.4996 26.4 70.4996 28C70.4996 29.5 69.3996 30.6 68.0996 30.6ZM58.7996 23.8C56.3996 23.8 54.4996 25.6 54.4996 28.1C54.4996 30.5 56.3996 32.4 58.7996 32.4C61.1996 32.4 63.0996 30.6 63.0996 28.1C63.0996 25.5 61.1996 23.8 58.7996 23.8ZM58.7996 30.6C57.4996 30.6 56.3996 29.5 56.3996 28C56.3996 26.5 57.4996 25.4 58.7996 25.4C60.0996 25.4 61.1996 26.4 61.1996 28C61.1996 29.5 60.0996 30.6 58.7996 30.6ZM47.6996 25.1V26.9H51.9996C51.8996 27.9 51.4996 28.7 50.9996 29.2C50.3996 29.8 49.3996 30.5 47.6996 30.5C44.9996 30.5 42.9996 28.4 42.9996 25.7C42.9996 23 45.0996 20.9 47.6996 20.9C49.0996 20.9 50.1996 21.5 50.9996 22.2L52.2996 20.9C51.1996 19.9 49.7996 19.1 47.7996 19.1C44.1996 19.1 41.0996 22.1 41.0996 25.7C41.0996 29.3 44.1996 32.3 47.7996 32.3C49.7996 32.3 51.1996 31.7 52.3996 30.4C53.5996 29.2 53.9996 27.5 53.9996 26.2C53.9996 25.8 53.9996 25.4 53.8996 25.1H47.6996ZM93.0996 26.5C92.6996 25.5 91.6996 23.8 89.4996 23.8C87.2996 23.8 85.4996 25.5 85.4996 28.1C85.4996 30.5 87.2996 32.4 89.6996 32.4C91.5996 32.4 92.7996 31.2 93.1996 30.5L91.7996 29.5C91.2996 30.2 90.6996 30.7 89.6996 30.7C88.6996 30.7 88.0996 30.3 87.5996 29.4L93.2996 27L93.0996 26.5ZM87.2996 27.9C87.2996 26.3 88.5996 25.4 89.4996 25.4C90.1996 25.4 90.8996 25.8 91.0996 26.3L87.2996 27.9ZM82.5996 32H84.4996V19.5H82.5996V32ZM79.5996 24.7C79.0996 24.2 78.2996 23.7 77.2996 23.7C75.1996 23.7 73.1996 25.6 73.1996 28C73.1996 30.4 75.0996 32.2 77.2996 32.2C78.2996 32.2 79.0996 31.7 79.4996 31.2H79.5996V31.8C79.5996 33.4 78.6996 34.3 77.2996 34.3C76.1996 34.3 75.3996 33.5 75.1996 32.8L73.5996 33.5C74.0996 34.6 75.2996 36 77.3996 36C79.5996 36 81.3996 34.7 81.3996 31.6V24H79.5996V24.7ZM77.3996 30.6C76.0996 30.6 74.9996 29.5 74.9996 28C74.9996 26.5 76.0996 25.4 77.3996 25.4C78.6996 25.4 79.6996 26.5 79.6996 28C79.6996 29.5 78.6996 30.6 77.3996 30.6ZM101.8 19.5H97.2996V32H99.1996V27.3H101.8C103.9 27.3 105.9 25.8 105.9 23.4C105.9 21 103.9 19.5 101.8 19.5ZM101.9 25.5H99.1996V21.2H101.9C103.3 21.2 104.1 22.4 104.1 23.3C104 24.4 103.2 25.5 101.9 25.5ZM113.4 23.7C112 23.7 110.6 24.3 110.1 25.6L111.8 26.3C112.2 25.6 112.8 25.4 113.5 25.4C114.5 25.4 115.4 26 115.5 27V27.1C115.2 26.9 114.4 26.6 113.6 26.6C111.8 26.6 110 27.6 110 29.4C110 31.1 111.5 32.2 113.1 32.2C114.4 32.2 115 31.6 115.5 31H115.6V32H117.4V27.2C117.2 25 115.5 23.7 113.4 23.7ZM113.2 30.6C112.6 30.6 111.7 30.3 111.7 29.5C111.7 28.5 112.8 28.2 113.7 28.2C114.5 28.2 114.9 28.4 115.4 28.6C115.2 29.8 114.2 30.6 113.2 30.6ZM123.7 24L121.6 29.4H121.5L119.3 24H117.3L120.6 31.6L118.7 35.8H120.6L125.7 24H123.7ZM106.9 32H108.8V19.5H106.9V32Z" fill="white"/>
<path d="M10.4 9.5C10.1 9.8 10 10.3 10 10.9V33C10 33.6 10.2 34.1 10.5 34.4L10.6 34.5L23 22.1V22V21.9L10.4 9.5Z" fill="url(#paint0_linear)"/>
<path d="M27.0004 26.3L22.9004 22.2001V22V21.9L27.0004 17.8L27.1004 17.9L32.0004 20.7001C33.4004 21.5001 33.4004 22.8 32.0004 23.6L27.0004 26.3Z" fill="url(#paint1_linear)"/>
<path d="M27.1004 26.2L22.9004 22L10.4004 34.5C10.9004 35 11.6004 35 12.5004 34.6L27.1004 26.2Z" fill="url(#paint2_linear)"/>
<path d="M27.1004 17.8L12.5004 9.49999C11.6004 8.99999 10.9004 9.09999 10.4004 9.59999L22.9004 22L27.1004 17.8Z" fill="url(#paint3_linear)"/>
<path opacity="0.2" d="M27.0004 26.1L12.5004 34.3C11.7004 34.8 11.0004 34.7 10.5004 34.3L10.4004 34.4L10.5004 34.5C11.0004 34.9 11.7004 35 12.5004 34.5L27.0004 26.1Z" fill="black"/>
<path opacity="0.12" d="M10.4 34.3C10.1 34 10 33.5 10 32.9V33C10 33.6 10.2 34.1 10.5 34.4V34.3H10.4Z" fill="black"/>
<path opacity="0.12" d="M32 23.3L27 26.1L27.1 26.2L32 23.4C32.7 23 33 22.5 33 22C33 22.5 32.6 22.9 32 23.3Z" fill="black"/>
<path opacity="0.25" d="M12.5 9.60003L32 20.7C32.6 21.1 33 21.5 33 22C33 21.5 32.7 21 32 20.6L12.5 9.50003C11.1 8.70003 10 9.30003 10 10.9V11C10 9.50003 11.1 8.80003 12.5 9.60003Z" fill="white"/>
<path d="M42.1004 16.3H41.4004V14.3H42.0004C42.5004 13.9 42.8004 13.1 42.8004 12V9H46.8004V14.3H47.5004V16.3H46.8004V15H42.2004V16.3H42.1004ZM43.5004 12C43.5004 12.9 43.3004 13.7 42.9004 14.3H45.9004V9.7H43.4004V12H43.5004Z" fill="white" stroke="white" stroke-width="0.2" stroke-miterlimit="10"/>
<path d="M53.4006 14.2C52.8006 14.8 52.1006 15.1 51.2006 15.1C50.3006 15.1 49.6006 14.8 49.0006 14.2C48.4006 13.6 48.1006 12.9 48.1006 12C48.1006 11.1 48.4006 10.4 49.0006 9.80002C49.6006 9.20002 50.3006 8.90002 51.2006 8.90002C52.1006 8.90002 52.8006 9.20002 53.4006 9.80002C54.0006 10.4 54.3006 11.1 54.3006 12C54.3006 12.9 54.0006 13.6 53.4006 14.2ZM49.6006 13.7C50.0006 14.1 50.6006 14.4 51.2006 14.4C51.8006 14.4 52.4006 14.2 52.8006 13.7C53.2006 13.3 53.5006 12.7 53.5006 12C53.5006 11.3 53.3006 10.7 52.8006 10.3C52.4006 9.90002 51.8006 9.60003 51.2006 9.60003C50.6006 9.60003 50.0006 9.80002 49.6006 10.3C49.2006 10.7 48.9006 11.3 48.9006 12C48.9006 12.7 49.1006 13.3 49.6006 13.7Z" fill="white" stroke="white" stroke-width="0.2" stroke-miterlimit="10"/>
<path d="M58.2006 15.1C57.3006 15.1 56.6006 14.8 56.0006 14.2C55.4006 13.6 55.1006 12.9 55.1006 12C55.1006 11.1 55.4006 10.4 56.0006 9.80002C56.6006 9.20002 57.3006 8.90002 58.2006 8.90002C59.1006 8.90002 59.8006 9.20002 60.4006 9.90002L59.9006 10.4C59.5006 9.90002 58.9006 9.60003 58.2006 9.60003C57.5006 9.60003 57.0006 9.80002 56.5006 10.3C56.0006 10.7 55.8006 11.3 55.8006 12C55.8006 12.7 56.0006 13.3 56.5006 13.7C56.9006 14.1 57.5006 14.4 58.2006 14.4C58.9006 14.4 59.5006 14.1 60.0006 13.5L60.5006 14C60.2006 14.3 59.9006 14.6 59.5006 14.8C59.1006 15 58.7006 15.1 58.2006 15.1Z" fill="white" stroke="white" stroke-width="0.2" stroke-miterlimit="10"/>
<path d="M63.7002 15H62.9002V9.7H61.2002V9H65.3002V9.7H63.6002V15H63.7002Z" fill="white" stroke="white" stroke-width="0.2" stroke-miterlimit="10"/>
<path d="M70.6008 9L68.3008 14.1C68.0008 14.8 67.5008 15.2 66.9008 15.2C66.7008 15.2 66.5008 15.2 66.3008 15.1L66.5008 14.4C66.6008 14.5 66.8008 14.5 66.9008 14.5C67.1008 14.5 67.2008 14.5 67.3008 14.4C67.4008 14.3 67.5008 14.2 67.6008 14L67.8008 13.5L65.8008 9.1H66.7008L68.2008 12.5L69.7008 9H70.6008Z" fill="white" stroke="white" stroke-width="0.2" stroke-miterlimit="10"/>
<path d="M71.5 15V9H75.8V15H75V9.7H72.2V15H71.5Z" fill="white" stroke="white" stroke-width="0.2" stroke-miterlimit="10"/>
<path d="M77.2002 15V9H78.0002V11.6H81.0002V9H81.8002V15H81.0002V12.3H78.0002V15H77.2002Z" fill="white" stroke="white" stroke-width="0.2" stroke-miterlimit="10"/>
<path d="M88.1008 14.2C87.5008 14.8 86.8008 15.1 85.9008 15.1C85.0008 15.1 84.3008 14.8 83.7008 14.2C83.1008 13.6 82.8008 12.9 82.8008 12C82.8008 11.1 83.1008 10.4 83.7008 9.80002C84.3008 9.20002 85.0008 8.90002 85.9008 8.90002C86.8008 8.90002 87.5008 9.20002 88.1008 9.80002C88.7008 10.4 89.0008 11.1 89.0008 12C88.9008 12.9 88.6008 13.6 88.1008 14.2ZM84.2008 13.7C84.6008 14.1 85.2008 14.4 85.8008 14.4C86.4008 14.4 87.0008 14.2 87.4008 13.7C87.8008 13.3 88.1008 12.7 88.1008 12C88.1008 11.3 87.9008 10.7 87.4008 10.3C87.0008 9.90002 86.4008 9.60003 85.8008 9.60003C85.2008 9.60003 84.6008 9.80002 84.2008 10.3C83.8008 10.7 83.5008 11.3 83.5008 12C83.5008 12.7 83.8008 13.3 84.2008 13.7Z" fill="white" stroke="white" stroke-width="0.2" stroke-miterlimit="10"/>
<path d="M92.1006 15V9H94.3006C94.8006 9 95.2006 9.2 95.5006 9.5C95.8006 9.8 96.0006 10.2 96.0006 10.6C96.0006 10.9 95.9006 11.1 95.8006 11.4C95.7006 11.6 95.5006 11.8 95.2006 11.9C95.5006 12 95.7006 12.2 95.9006 12.4C96.1006 12.6 96.2006 12.9 96.2006 13.3C96.2006 13.8 96.0006 14.2 95.7006 14.5C95.3006 14.8 94.9006 15 94.4006 15H92.1006ZM92.9006 11.6H94.3006C94.6006 11.6 94.8006 11.5 95.0006 11.3C95.2006 11.1 95.3006 10.9 95.3006 10.7C95.3006 10.5 95.1006 10.2 95.0006 9.99997C94.8006 9.8 94.6006 9.7 94.3006 9.7H92.9006V11.6ZM92.9006 14.3H94.5006C94.8006 14.3 95.0006 14.2 95.2006 14C95.4006 13.8 95.5006 13.6 95.5006 13.3C95.5006 13.1 95.4006 12.8 95.2006 12.6C95.0006 12.4 94.8006 12.3 94.5006 12.3H93.0006V14.3H92.9006Z" fill="white" stroke="white" stroke-width="0.2" stroke-miterlimit="10"/>
<defs>
<linearGradient id="paint0_linear" x1="21.7996" y1="10.7098" x2="5.0172" y2="27.4922" gradientUnits="userSpaceOnUse">
<stop stop-color="#00A0FF"/>
<stop offset="0.00657445" stop-color="#00A1FF"/>
<stop offset="0.2601" stop-color="#00BEFF"/>
<stop offset="0.5122" stop-color="#00D2FF"/>
<stop offset="0.7604" stop-color="#00DFFF"/>
<stop offset="1" stop-color="#00E3FF"/>
</linearGradient>
<linearGradient id="paint1_linear" x1="33.8347" y1="22.0015" x2="9.6378" y2="22.0015" gradientUnits="userSpaceOnUse">
<stop stop-color="#FFE000"/>
<stop offset="0.4087" stop-color="#FFBD00"/>
<stop offset="0.7754" stop-color="#FFA500"/>
<stop offset="1" stop-color="#FF9C00"/>
</linearGradient>
<linearGradient id="paint2_linear" x1="24.8273" y1="24.2962" x2="2.069" y2="47.0545" gradientUnits="userSpaceOnUse">
<stop stop-color="#FF3A44"/>
<stop offset="1" stop-color="#C31162"/>
</linearGradient>
<linearGradient id="paint3_linear" x1="7.2976" y1="2.17629" x2="17.4602" y2="12.3388" gradientUnits="userSpaceOnUse">
<stop stop-color="#32A071"/>
<stop offset="0.0685" stop-color="#2DA771"/>
<stop offset="0.4762" stop-color="#15CF74"/>
<stop offset="0.8009" stop-color="#06E775"/>
<stop offset="1" stop-color="#00F076"/>
</linearGradient>
</defs>
</svg>
